...........................
----------------------------------------------------------------------
Ran 27 tests in 9.684s

OK
Name             Stmts   Miss Branch BrPart  Cover   Missing
------------------------------------------------------------
Collatz.py          33      0     14      0   100%
TestCollatz.py     110      0      0      0   100%
------------------------------------------------------------
TOTAL              143      0     14      0   100%
